{
    "key": "group_5c24a12f59346",
    "title": "Dashboard",
    "fields": [
        {
            "key": "field_5c24a15a48451",
            "label": "Notifications",
            "name": "notifications",
            "type": "repeater",
            "instructions": "Here you can create notifications that will display on user dashboards.",
            "required": 0,
            "conditional_logic": 0,
            "wrapper": {
                "width": "",
                "class": "",
                "id": ""
            },
            "collapsed": "field_5c24a1a948452",
            "min": 0,
            "max": 0,
            "layout": "table",
            "button_label": "Add Notification",
            "sub_fields": [
                {
                    "key": "field_5c24a2505d742",
                    "label": "Notification",
                    "name": "notification",
                    "type": "wysiwyg",
                    "instructions": "",
                    "required": 1,
                    "conditional_logic": 0,
                    "wrapper": {
                        "width": "",
                        "class": "",
                        "id": ""
                    },
                    "default_value": "",
                    "tabs": "all",
                    "toolbar": "full",
                    "media_upload": 0,
                    "delay": 0
                }
            ]
        }
    ],
    "location": [
        [
            {
                "param": "page",
                "operator": "==",
                "value": "4725"
            }
        ]
    ],
    "menu_order": 5,
    "position": "acf_after_title",
    "style": "default",
    "label_placement": "top",
    "instruction_placement": "label",
    "hide_on_screen": [
        "the_content",
        "excerpt",
        "discussion",
        "comments",
        "slug",
        "author",
        "format",
        "featured_image",
        "categories",
        "tags",
        "send-trackbacks"
    ],
    "active": 1,
    "description": "",
    "modified": 1545905487
}