{
    "key": "group_5beac324e31c2",
    "title": "Events",
    "fields": [
        {
            "key": "field_5c3766e119b71",
            "label": "Move Header Content",
            "name": "move_header_content",
            "type": "true_false",
            "instructions": "If you want to move the header text below the header, tick this box. Useful if you have a header video or a bespoke background image.<br><strong>Only works on full-width templates with a background image\/video<\/strong>",
            "required": 0,
            "conditional_logic": 0,
            "wrapper": {
                "width": "",
                "class": "",
                "id": ""
            },
            "message": "",
            "default_value": 0,
            "ui": 0,
            "ui_on_text": "",
            "ui_off_text": ""
        },
        {
            "key": "field_5beac4f212073",
            "label": "Venue",
            "name": "location",
            "type": "text",
            "instructions": "This field will be output in the header.",
            "required": 0,
            "conditional_logic": 0,
            "wrapper": {
                "width": "33.3",
                "class": "",
                "id": ""
            },
            "default_value": "",
            "placeholder": "",
            "prepend": "",
            "append": "",
            "maxlength": ""
        },
        {
            "key": "field_5bf2ac28f60f8",
            "label": "Pricing",
            "name": "pricing",
            "type": "text",
            "instructions": "This field will be output in the header.",
            "required": 0,
            "conditional_logic": 0,
            "wrapper": {
                "width": "33.3",
                "class": "",
                "id": ""
            },
            "default_value": "",
            "placeholder": "",
            "prepend": "",
            "append": "",
            "maxlength": ""
        },
        {
            "key": "field_5bf2ad244aed2",
            "label": "Booking URL",
            "name": "booking_url",
            "type": "text",
            "instructions": "",
            "required": 0,
            "conditional_logic": 0,
            "wrapper": {
                "width": "33.3",
                "class": "",
                "id": ""
            },
            "default_value": "",
            "placeholder": "",
            "prepend": "",
            "append": "",
            "maxlength": ""
        },
        {
            "key": "field_5beac32d1206e",
            "label": "Dates",
            "name": "dates",
            "type": "repeater",
            "instructions": "Must be kept in date order.",
            "required": 0,
            "conditional_logic": 0,
            "wrapper": {
                "width": "",
                "class": "",
                "id": ""
            },
            "collapsed": "",
            "min": 0,
            "max": 0,
            "layout": "table",
            "button_label": "Add Date",
            "sub_fields": [
                {
                    "key": "field_5beac3641206f",
                    "label": "Start Date",
                    "name": "start_date",
                    "type": "date_picker",
                    "instructions": "",
                    "required": 0,
                    "conditional_logic": 0,
                    "wrapper": {
                        "width": "25",
                        "class": "",
                        "id": ""
                    },
                    "display_format": "d\/m\/Y",
                    "return_format": "d\/m\/Y",
                    "first_day": 1
                },
                {
                    "key": "field_5beac47b12070",
                    "label": "End Date",
                    "name": "end_date",
                    "type": "date_picker",
                    "instructions": "",
                    "required": 0,
                    "conditional_logic": 0,
                    "wrapper": {
                        "width": "25",
                        "class": "",
                        "id": ""
                    },
                    "display_format": "d\/m\/Y",
                    "return_format": "d\/m\/Y",
                    "first_day": 1
                },
                {
                    "key": "field_5beac49012071",
                    "label": "Start Time",
                    "name": "start_time",
                    "type": "time_picker",
                    "instructions": "",
                    "required": 0,
                    "conditional_logic": 0,
                    "wrapper": {
                        "width": "25",
                        "class": "",
                        "id": ""
                    },
                    "display_format": "g:i a",
                    "return_format": "g:i a"
                },
                {
                    "key": "field_5beac4be12072",
                    "label": "End Time",
                    "name": "end_time",
                    "type": "time_picker",
                    "instructions": "",
                    "required": 0,
                    "conditional_logic": 0,
                    "wrapper": {
                        "width": "25",
                        "class": "",
                        "id": ""
                    },
                    "display_format": "g:i a",
                    "return_format": "g:i a"
                }
            ]
        },
        {
            "key": "field_5bf2ab35f60f7",
            "label": "Hide Date",
            "name": "hide_date",
            "type": "date_picker",
            "instructions": "<strong>This field is populated automatically when saved based on the field above.<\/strong><br>\r\nThis is the date from which this event will not be shown on grid\/list view - historical events are still visible on the calendar.",
            "required": 0,
            "conditional_logic": 0,
            "wrapper": {
                "width": "",
                "class": "",
                "id": ""
            },
            "display_format": "d\/m\/Y",
            "return_format": "d\/m\/Y",
            "first_day": 1
        },
        {
            "key": "field_5beac8e5e496a",
            "label": "Event Fields",
            "name": "event_fields",
            "type": "flexible_content",
            "instructions": "Use this field to create and populate the following sections of events: Overview, Speakers, Venue, Agenda & Sponsors.",
            "required": 0,
            "conditional_logic": 0,
            "wrapper": {
                "width": "",
                "class": "",
                "id": ""
            },
            "layouts": {
                "layout_5beaee80c4378": {
                    "key": "layout_5beaee80c4378",
                    "name": "text",
                    "label": "Overview",
                    "display": "block",
                    "sub_fields": [
                        {
                            "key": "field_5beaee83c4379",
                            "label": "Text",
                            "name": "text",
                            "type": "clone",
                            "instructions": "",
                            "required": 1,
                            "conditional_logic": 0,
                            "wrapper": {
                                "width": "",
                                "class": "",
                                "id": ""
                            },
                            "clone": [
                                "field_5bc6080d175a4",
                                "field_5bc60c42175a6",
                                "field_5bc608bc175a5",
                                "field_5bc607eb175a2"
                            ],
                            "display": "seamless",
                            "layout": "block",
                            "prefix_label": 0,
                            "prefix_name": 0
                        },
                        {
                            "key": "field_5c3da89787062",
                            "label": "Video",
                            "name": "video",
                            "type": "clone",
                            "instructions": "",
                            "required": 0,
                            "conditional_logic": 0,
                            "wrapper": {
                                "width": "",
                                "class": "",
                                "id": ""
                            },
                            "clone": [
                                "field_5bc6f2bedb7fa",
                                "field_5c1bcb133af8d",
                                "field_5bcdbc32babeb",
                                "field_5bcdbc42babec",
                                "field_5bc60fb1f1565"
                            ],
                            "display": "seamless",
                            "layout": "block",
                            "prefix_label": 0,
                            "prefix_name": 0
                        }
                    ],
                    "min": "",
                    "max": "1"
                },
                "layout_5beaed8d708c1": {
                    "key": "layout_5beaed8d708c1",
                    "name": "google_map",
                    "label": "Venue",
                    "display": "block",
                    "sub_fields": [
                        {
                            "key": "field_5beaedfd546cf",
                            "label": "Google Map",
                            "name": "google_map",
                            "type": "clone",
                            "instructions": "",
                            "required": 0,
                            "conditional_logic": 0,
                            "wrapper": {
                                "width": "",
                                "class": "",
                                "id": ""
                            },
                            "clone": [
                                "field_5beaedd5e3869",
                                "field_5beaedabe3868"
                            ],
                            "display": "seamless",
                            "layout": "block",
                            "prefix_label": 0,
                            "prefix_name": 0
                        }
                    ],
                    "min": "",
                    "max": "1"
                },
                "layout_5c2cd4fa1cf86": {
                    "key": "layout_5c2cd4fa1cf86",
                    "name": "contacts",
                    "label": "Contacts",
                    "display": "block",
                    "sub_fields": [
                        {
                            "key": "field_5c2cd4fe1cf87",
                            "label": "People",
                            "name": "people",
                            "type": "clone",
                            "instructions": "",
                            "required": 0,
                            "conditional_logic": 0,
                            "wrapper": {
                                "width": "",
                                "class": "",
                                "id": ""
                            },
                            "clone": [
                                "field_5bc6f1d2db7f3",
                                "field_5bc6f207db7f5"
                            ],
                            "display": "seamless",
                            "layout": "block",
                            "prefix_label": 0,
                            "prefix_name": 0
                        }
                    ],
                    "min": "",
                    "max": ""
                },
                "5beac8ed39ecd": {
                    "key": "5beac8ed39ecd",
                    "name": "people",
                    "label": "Speakers",
                    "display": "block",
                    "sub_fields": [
                        {
                            "key": "field_5beac5e412075",
                            "label": "Speakers",
                            "name": "speakers",
                            "type": "clone",
                            "instructions": "",
                            "required": 0,
                            "conditional_logic": 0,
                            "wrapper": {
                                "width": "",
                                "class": "",
                                "id": ""
                            },
                            "clone": [
                                "field_5bc6f1d2db7f3",
                                "field_5bc6f207db7f5"
                            ],
                            "display": "seamless",
                            "layout": "block",
                            "prefix_label": 0,
                            "prefix_name": 0
                        }
                    ],
                    "min": "",
                    "max": "1"
                },
                "layout_5beac90be496c": {
                    "key": "layout_5beac90be496c",
                    "name": "agenda",
                    "label": "Agenda",
                    "display": "block",
                    "sub_fields": [
                        {
                            "key": "field_5beac67d12076",
                            "label": "Agenda",
                            "name": "agenda",
                            "type": "clone",
                            "instructions": "",
                            "required": 0,
                            "conditional_logic": 0,
                            "wrapper": {
                                "width": "",
                                "class": "",
                                "id": ""
                            },
                            "clone": [
                                "field_5bc6f814a4265",
                                "field_5bc6f80aa4264"
                            ],
                            "display": "seamless",
                            "layout": "block",
                            "prefix_label": 0,
                            "prefix_name": 0
                        }
                    ],
                    "min": "",
                    "max": "1"
                },
                "layout_5beac90ae496b": {
                    "key": "layout_5beac90ae496b",
                    "name": "logo_grid",
                    "label": "Sponsors",
                    "display": "block",
                    "sub_fields": [
                        {
                            "key": "field_5beac6a212077",
                            "label": "Sponsors",
                            "name": "sponsors",
                            "type": "clone",
                            "instructions": "",
                            "required": 0,
                            "conditional_logic": 0,
                            "wrapper": {
                                "width": "",
                                "class": "",
                                "id": ""
                            },
                            "clone": [
                                "field_5bc7568b89cd2",
                                "field_5bc7568b89cd3"
                            ],
                            "display": "seamless",
                            "layout": "block",
                            "prefix_label": 0,
                            "prefix_name": 0
                        }
                    ],
                    "min": "",
                    "max": "1"
                }
            },
            "button_label": "Add Row",
            "min": "",
            "max": ""
        }
    ],
    "location": [
        [
            {
                "param": "post_type",
                "operator": "==",
                "value": "all-events"
            }
        ]
    ],
    "menu_order": 0,
    "position": "normal",
    "style": "default",
    "label_placement": "top",
    "instruction_placement": "label",
    "hide_on_screen": [
        "the_content",
        "excerpt",
        "discussion",
        "slug",
        "format",
        "featured_image",
        "tags",
        "send-trackbacks"
    ],
    "active": 1,
    "description": "",
    "modified": 1547544795
}