{
    "key": "group_5c346e6dc7f06",
    "title": "JFL Vacancies",
    "fields": [
        {
            "key": "field_5c346e733b7ad",
            "label": "Show Footer Contact Details",
            "name": "show_footer_contact_details",
            "type": "true_false",
            "instructions": "Tick this box if you want to display a the message about submitting a CV and covering letter to the office manager.",
            "required": 0,
            "conditional_logic": 0,
            "wrapper": {
                "width": "",
                "class": "",
                "id": ""
            },
            "message": "Show message",
            "default_value": 0,
            "ui": 0,
            "ui_on_text": "",
            "ui_off_text": ""
        }
    ],
    "location": [
        [
            {
                "param": "post_type",
                "operator": "==",
                "value": "all-jfl-vacancies"
            }
        ]
    ],
    "menu_order": 30,
    "position": "acf_after_title",
    "style": "default",
    "label_placement": "top",
    "instruction_placement": "label",
    "hide_on_screen": "",
    "active": 1,
    "description": "",
    "modified": 1546940144
}