{
    "key": "group_5bcf41300d7e1",
    "title": "Content",
    "fields": [
        {
            "key": "field_5bcf4138eb7e9",
            "label": "Content",
            "name": "content",
            "type": "clone",
            "instructions": "",
            "required": 0,
            "conditional_logic": 0,
            "wrapper": {
                "width": "",
                "class": "",
                "id": ""
            },
            "clone": [
                "field_5bc606e81759f"
            ],
            "display": "seamless",
            "layout": "block",
            "prefix_label": 0,
            "prefix_name": 0
        }
    ],
    "location": [
        [
            {
                "param": "post_type",
                "operator": "!=",
                "value": "post"
            },
            {
                "param": "post_type",
                "operator": "!=",
                "value": "all-events"
            },
            {
                "param": "post_type",
                "operator": "!=",
                "value": "all-businesses"
            },
            {
                "param": "post_type",
                "operator": "!=",
                "value": "all-timeline-items"
            },
            {
                "param": "post_type",
                "operator": "!=",
                "value": "post"
            },
            {
                "param": "post_type",
                "operator": "!=",
                "value": "all-aifmd-countries"
            },
            {
                "param": "post_type",
                "operator": "!=",
                "value": "all-fund-countries"
            },
            {
                "param": "page",
                "operator": "!=",
                "value": "7495"
            },
            {
                "param": "page",
                "operator": "!=",
                "value": "5117"
            }
        ]
    ],
    "menu_order": 0,
    "position": "normal",
    "style": "default",
    "label_placement": "top",
    "instruction_placement": "label",
    "hide_on_screen": [
        "the_content",
        "excerpt",
        "slug",
        "author",
        "format",
        "featured_image",
        "categories",
        "tags",
        "send-trackbacks"
    ],
    "active": 1,
    "description": "",
    "modified": 1548941580
}