{
    "key": "group_5bf80bd279b74",
    "title": "Business Information",
    "fields": [
        {
            "key": "field_5bfeb1e6fb37e",
            "label": "Business Information",
            "name": "",
            "type": "tab",
            "instructions": "",
            "required": 0,
            "conditional_logic": 0,
            "wrapper": {
                "width": "",
                "class": "",
                "id": ""
            },
            "placement": "top",
            "endpoint": 0
        },
        {
            "key": "field_5bfeb0ad889c1",
            "label": "Introduction",
            "name": "introduction",
            "type": "textarea",
            "instructions": "Please give a brief introduction to your business.",
            "required": 0,
            "conditional_logic": 0,
            "wrapper": {
                "width": "",
                "class": "",
                "id": ""
            },
            "default_value": "",
            "new_lines": "",
            "maxlength": "",
            "placeholder": "",
            "rows": ""
        },
        {
            "key": "field_5bfeb16477c6d",
            "label": "Overview",
            "name": "overview",
            "type": "wysiwyg",
            "instructions": "Use this field to give a full overview of your business. This will be the main body of text that is output on your business listing.",
            "required": 0,
            "conditional_logic": 0,
            "wrapper": {
                "width": "",
                "class": "",
                "id": ""
            },
            "tabs": "all",
            "toolbar": "full",
            "media_upload": 1,
            "default_value": "",
            "delay": 0
        },
        {
            "key": "field_5bf80bdc4ca77",
            "label": "Logo",
            "name": "logo",
            "type": "file",
            "instructions": "Please upload your logo.",
            "required": 0,
            "conditional_logic": 0,
            "wrapper": {
                "width": "50",
                "class": "",
                "id": ""
            },
            "return_format": "array",
            "library": "all",
            "min_size": "",
            "max_size": "",
            "mime_types": ""
        },
        {
            "key": "field_5bf80c074ca78",
            "label": "Social Logo",
            "name": "social_logo",
            "type": "file",
            "instructions": "Please upload the logo you use for your social media profiles.",
            "required": 0,
            "conditional_logic": 0,
            "wrapper": {
                "width": "50",
                "class": "",
                "id": ""
            },
            "return_format": "array",
            "library": "all",
            "min_size": "",
            "max_size": "",
            "mime_types": ""
        },
        {
            "key": "field_5bf80c294ca79",
            "label": "Domain Names",
            "name": "domain_names",
            "type": "repeater",
            "instructions": "These will be used to match users to your business. Any user that has an email address matching any of the below will be able to opt-in to managing your business' content.",
            "required": 0,
            "conditional_logic": 0,
            "wrapper": {
                "width": "",
                "class": "",
                "id": ""
            },
            "collapsed": "field_5bf80c324ca7a",
            "min": 0,
            "max": 0,
            "layout": "block",
            "button_label": "Add domain",
            "sub_fields": [
                {
                    "key": "field_5bf80c324ca7a",
                    "label": "Domain Name",
                    "name": "domain_name",
                    "type": "text",
                    "instructions": "",
                    "required": 0,
                    "conditional_logic": 0,
                    "wrapper": {
                        "width": "",
                        "class": "",
                        "id": ""
                    },
                    "default_value": "",
                    "placeholder": "yourdomain.co.uk",
                    "prepend": "",
                    "append": "",
                    "maxlength": ""
                }
            ]
        },
        {
            "key": "field_5bf80c624ca7b",
            "label": "Website Address",
            "name": "website_address",
            "type": "url",
            "instructions": "",
            "required": 0,
            "conditional_logic": 0,
            "wrapper": {
                "width": "",
                "class": "",
                "id": ""
            },
            "default_value": "",
            "placeholder": "https:\/\/www.yourdomain.co.uk"
        },
        {
            "key": "field_5bf80c8c4ca7c",
            "label": "Email Address",
            "name": "email_address",
            "type": "email",
            "instructions": "",
            "required": 0,
            "conditional_logic": 0,
            "wrapper": {
                "width": "50",
                "class": "",
                "id": ""
            },
            "default_value": "",
            "placeholder": "Your main business email address.",
            "prepend": "",
            "append": ""
        },
        {
            "key": "field_5bf80ca14ca7d",
            "label": "Telephone Number",
            "name": "telephone_number",
            "type": "text",
            "instructions": "",
            "required": 0,
            "conditional_logic": 0,
            "wrapper": {
                "width": "50",
                "class": "",
                "id": ""
            },
            "default_value": "",
            "placeholder": "",
            "prepend": "",
            "append": "",
            "maxlength": ""
        },
        {
            "key": "field_5bf80cbb4ca7e",
            "label": "Address",
            "name": "address",
            "type": "textarea",
            "instructions": "",
            "required": 0,
            "conditional_logic": 0,
            "wrapper": {
                "width": "",
                "class": "",
                "id": ""
            },
            "default_value": "",
            "placeholder": "",
            "maxlength": "",
            "rows": 3,
            "new_lines": "br"
        },
        {
            "key": "field_5bf80cc84ca7f",
            "label": "Key Contacts",
            "name": "key_contacts",
            "type": "repeater",
            "instructions": "",
            "required": 0,
            "conditional_logic": 0,
            "wrapper": {
                "width": "",
                "class": "",
                "id": ""
            },
            "collapsed": "field_5bfd2242e2dd2",
            "min": 0,
            "max": 0,
            "layout": "table",
            "button_label": "",
            "sub_fields": [
                {
                    "key": "field_5bfd2242e2dd2",
                    "label": "Name",
                    "name": "name",
                    "type": "text",
                    "instructions": "",
                    "required": 0,
                    "conditional_logic": 0,
                    "wrapper": {
                        "width": "",
                        "class": "",
                        "id": ""
                    },
                    "default_value": "",
                    "placeholder": "",
                    "prepend": "",
                    "append": "",
                    "maxlength": ""
                },
                {
                    "key": "field_5bfd2251e2dd3",
                    "label": "Job Title",
                    "name": "job_title",
                    "type": "text",
                    "instructions": "",
                    "required": 0,
                    "conditional_logic": 0,
                    "wrapper": {
                        "width": "",
                        "class": "",
                        "id": ""
                    },
                    "default_value": "",
                    "placeholder": "",
                    "prepend": "",
                    "append": "",
                    "maxlength": ""
                },
                {
                    "key": "field_5bfd2255e2dd4",
                    "label": "Email",
                    "name": "email",
                    "type": "email",
                    "instructions": "",
                    "required": 0,
                    "conditional_logic": 0,
                    "wrapper": {
                        "width": "",
                        "class": "",
                        "id": ""
                    },
                    "default_value": "",
                    "placeholder": "",
                    "prepend": "",
                    "append": ""
                },
                {
                    "key": "field_5bfd2272e2dd5",
                    "label": "Direct Line",
                    "name": "direct_line",
                    "type": "text",
                    "instructions": "",
                    "required": 0,
                    "conditional_logic": 0,
                    "wrapper": {
                        "width": "",
                        "class": "",
                        "id": ""
                    },
                    "default_value": "",
                    "placeholder": "",
                    "prepend": "",
                    "append": "",
                    "maxlength": ""
                },
                {
                    "key": "field_5bfd227ae2dd6",
                    "label": "Image",
                    "name": "image",
                    "type": "image",
                    "instructions": "",
                    "required": 0,
                    "conditional_logic": 0,
                    "wrapper": {
                        "width": "",
                        "class": "",
                        "id": ""
                    },
                    "return_format": "array",
                    "preview_size": "thumbnail",
                    "library": "all",
                    "min_width": "",
                    "min_height": "",
                    "min_size": "",
                    "max_width": "",
                    "max_height": "",
                    "max_size": "",
                    "mime_types": ""
                }
            ]
        },
        {
            "key": "field_5bf80ce74ca80",
            "label": "Twitter",
            "name": "twitter",
            "type": "url",
            "instructions": "",
            "required": 0,
            "conditional_logic": 0,
            "wrapper": {
                "width": "33.3",
                "class": "",
                "id": ""
            },
            "default_value": "",
            "placeholder": ""
        },
        {
            "key": "field_5bf80d174ca82",
            "label": "LinkedIn",
            "name": "linkedin",
            "type": "url",
            "instructions": "",
            "required": 0,
            "conditional_logic": 0,
            "wrapper": {
                "width": "33.3",
                "class": "",
                "id": ""
            },
            "default_value": "",
            "placeholder": ""
        },
        {
            "key": "field_5bf80d164ca81",
            "label": "Facebook",
            "name": "facebook",
            "type": "url",
            "instructions": "",
            "required": 0,
            "conditional_logic": 0,
            "wrapper": {
                "width": "33.3",
                "class": "",
                "id": ""
            },
            "default_value": "",
            "placeholder": ""
        },
        {
            "key": "field_5c3e1a79a1dde",
            "label": "Related Businesses",
            "name": "related_businesses",
            "type": "relationship",
            "instructions": "Select any subsidiaries or related business listings - these will be output as subsidiaries on this business listing, and this business will be linked to from each subsidiary.",
            "required": 0,
            "conditional_logic": 0,
            "wrapper": {
                "width": "",
                "class": "",
                "id": ""
            },
            "post_type": [
                "all-businesses"
            ],
            "taxonomy": "",
            "filters": [
                "search",
                "taxonomy"
            ],
            "elements": "",
            "min": "",
            "max": "",
            "return_format": "object"
        },
        {
            "key": "field_5bf80d304ca83",
            "label": "Related Sectors",
            "name": "related_sectors",
            "type": "post_object",
            "instructions": "",
            "required": 0,
            "conditional_logic": 0,
            "wrapper": {
                "width": "50",
                "class": "",
                "id": ""
            },
            "post_type": [
                "all-sectors"
            ],
            "taxonomy": "",
            "allow_null": 1,
            "multiple": 1,
            "return_format": "object",
            "ui": 1
        },
        {
            "key": "field_5bf80d4b4ca84",
            "label": "Related Markets",
            "name": "related_markets",
            "type": "post_object",
            "instructions": "",
            "required": 0,
            "conditional_logic": 0,
            "wrapper": {
                "width": "50",
                "class": "",
                "id": ""
            },
            "post_type": [
                "all-markets"
            ],
            "taxonomy": "",
            "allow_null": 1,
            "multiple": 1,
            "return_format": "object",
            "ui": 1
        },
        {
            "key": "field_5bfbbc849639a",
            "label": "User Management",
            "name": "",
            "type": "tab",
            "instructions": "",
            "required": 0,
            "conditional_logic": 0,
            "wrapper": {
                "width": "",
                "class": "",
                "id": ""
            },
            "placement": "top",
            "endpoint": 0
        },
        {
            "key": "field_5c17c69d1087f",
            "label": "CEO Connect Status",
            "name": "ceo_connect_status",
            "type": "radio",
            "instructions": "Does this user have CEO Connect status?",
            "required": 0,
            "conditional_logic": 0,
            "wrapper": {
                "width": "",
                "class": "",
                "id": ""
            },
            "choices": {
                "no": "No",
                "Yes": "Yes"
            },
            "allow_null": 1,
            "other_choice": 0,
            "default_value": "no",
            "layout": "horizontal",
            "return_format": "value",
            "save_other_choice": 0
        },
        {
            "key": "field_5bfbbc8f9639b",
            "label": "Owner",
            "name": "owner",
            "type": "user",
            "instructions": "The owner of the business entry. This person has can update & delete the business listing, post content on behalf of the organisation and can add\/remove users from their business.",
            "required": 0,
            "conditional_logic": 0,
            "wrapper": {
                "width": "",
                "class": "",
                "id": ""
            },
            "role": "",
            "allow_null": 0,
            "multiple": 1,
            "return_format": "array"
        },
        {
            "key": "field_5bfbbca89639c",
            "label": "Users",
            "name": "users",
            "type": "user",
            "instructions": "The list of users who have opted-in to managing content on behalf of this organisation.\r\n<br><br>\r\n<strong>These users are updated automatically<\/strong> whenever a user registers, or updates their details and is based on domain matching.\r\n<br><br>\r\nThese users are able to publish and delete content as well as update the business information.",
            "required": 0,
            "conditional_logic": 0,
            "wrapper": {
                "width": "",
                "class": "",
                "id": ""
            },
            "role": "",
            "allow_null": 0,
            "multiple": 1,
            "return_format": "array"
        },
        {
            "key": "field_5c3b923493ef1",
            "label": "Additional Users",
            "name": "additional_users",
            "type": "user",
            "instructions": "This is a list of additional users who can manage this businesses content.\r\n<br><br>\r\n<strong>This list is managed manually<\/strong> and can be used to add a user to the business that doesn't match any of the domains in the list.",
            "required": 0,
            "conditional_logic": 0,
            "wrapper": {
                "width": "",
                "class": "",
                "id": ""
            },
            "role": "",
            "allow_null": 0,
            "multiple": 1,
            "return_format": "array"
        }
    ],
    "location": [
        [
            {
                "param": "post_type",
                "operator": "==",
                "value": "all-businesses"
            }
        ]
    ],
    "menu_order": 10,
    "position": "acf_after_title",
    "style": "default",
    "label_placement": "top",
    "instruction_placement": "label",
    "hide_on_screen": [
        "the_content",
        "excerpt",
        "discussion",
        "comments",
        "slug",
        "author",
        "format",
        "page_attributes",
        "featured_image",
        "tags",
        "send-trackbacks"
    ],
    "active": 1,
    "description": "",
    "modified": 1548158277
}