{
    "key": "group_5bf6da30e4be1",
    "title": "Profile Information",
    "fields": [
        {
            "key": "field_5bf6da3b5cb85",
            "label": "Job Title",
            "name": "job_title",
            "type": "text",
            "instructions": "",
            "required": 0,
            "conditional_logic": 0,
            "wrapper": {
                "width": "",
                "class": "",
                "id": ""
            },
            "default_value": "",
            "placeholder": "",
            "prepend": "",
            "append": "",
            "maxlength": ""
        },
        {
            "key": "field_5bf6da425cb86",
            "label": "Phone",
            "name": "phone",
            "type": "text",
            "instructions": "",
            "required": 0,
            "conditional_logic": 0,
            "wrapper": {
                "width": "",
                "class": "",
                "id": ""
            },
            "default_value": "",
            "placeholder": "",
            "prepend": "",
            "append": "",
            "maxlength": ""
        },
        {
            "key": "field_5bf6da4b5cb87",
            "label": "City",
            "name": "city",
            "type": "text",
            "instructions": "",
            "required": 0,
            "conditional_logic": 0,
            "wrapper": {
                "width": "50",
                "class": "",
                "id": ""
            },
            "default_value": "",
            "placeholder": "",
            "prepend": "",
            "append": "",
            "maxlength": ""
        },
        {
            "key": "field_5bf6da515cb88",
            "label": "Country",
            "name": "country",
            "type": "select",
            "instructions": "",
            "required": 0,
            "conditional_logic": 0,
            "wrapper": {
                "width": "50",
                "class": "",
                "id": ""
            },
            "choices": {
                "Jersey": "Jersey",
                "United Kingdom": "United Kingdom",
                "Guernsey": "Guernsey",
                "Afghanistan": "Afghanistan",
                "Aland Islands": "Aland Islands",
                "Albania": "Albania",
                "Algeria": "Algeria",
                "American Samoa": "American Samoa",
                "Andorra": "Andorra",
                "Angola": "Angola",
                "Anguilla": "Anguilla",
                "Antarctica": "Antarctica",
                "Antigua and Barbuda": "Antigua and Barbuda",
                "Argentina": "Argentina",
                "Armenia": "Armenia",
                "Aruba": "Aruba",
                "Australia": "Australia",
                "Austria": "Austria",
                "Azerbaijan": "Azerbaijan",
                "Bahamas": "Bahamas",
                "Bahrain": "Bahrain",
                "Bangladesh": "Bangladesh",
                "Barbados": "Barbados",
                "Belarus": "Belarus",
                "Belgium": "Belgium",
                "Belize": "Belize",
                "Benin": "Benin",
                "Bermuda": "Bermuda",
                "Bhutan": "Bhutan",
                "Bolivia": "Bolivia",
                "Bosnia and Herzegovina": "Bosnia and Herzegovina",
                "Botswana": "Botswana",
                "Bouvet Island": "Bouvet Island",
                "Brazil": "Brazil",
                "British Indian Ocean Territory": "British Indian Ocean Territory",
                "British Virgin Islands": "British Virgin Islands",
                "Brunei Darussalam": "Brunei Darussalam",
                "Bulgaria": "Bulgaria",
                "Burkina Faso": "Burkina Faso",
                "Burundi": "Burundi",
                "Cambodia": "Cambodia",
                "Cameroon": "Cameroon",
                "Canada": "Canada",
                "Cape Verde": "Cape Verde",
                "Cayman Islands": "Cayman Islands",
                "Central African Republic": "Central African Republic",
                "Chad": "Chad",
                "Chile": "Chile",
                "China": "China",
                "Christmas Island": "Christmas Island",
                "Cocos (Keeling) Islands": "Cocos (Keeling) Islands",
                "Colombia": "Colombia",
                "Comoros": "Comoros",
                "Congo (Brazzaville)": "Congo (Brazzaville)",
                "Congo, (Kinshasa)": "Congo, (Kinshasa)",
                "Cook Islands": "Cook Islands",
                "Costa Rica": "Costa Rica",
                "Croatia": "Croatia",
                "Cuba": "Cuba",
                "Cyprus": "Cyprus",
                "Czech Republic": "Czech Republic",
                "Côte d'Ivoire": "Côte d'Ivoire",
                "Denmark": "Denmark",
                "Djibouti": "Djibouti",
                "Dominica": "Dominica",
                "Dominican Republic": "Dominican Republic",
                "Ecuador": "Ecuador",
                "Egypt": "Egypt",
                "El Salvador": "El Salvador",
                "Equatorial Guinea": "Equatorial Guinea",
                "Eritrea": "Eritrea",
                "Estonia": "Estonia",
                "Ethiopia": "Ethiopia",
                "Falkland Islands (Malvinas)": "Falkland Islands (Malvinas)",
                "Faroe Islands": "Faroe Islands",
                "Fiji": "Fiji",
                "Finland": "Finland",
                "France": "France",
                "French Guiana": "French Guiana",
                "French Polynesia": "French Polynesia",
                "French Southern Territories": "French Southern Territories",
                "Gabon": "Gabon",
                "Gambia": "Gambia",
                "Georgia": "Georgia",
                "Germany": "Germany",
                "Ghana": "Ghana",
                "Gibraltar": "Gibraltar",
                "Greece": "Greece",
                "Greenland": "Greenland",
                "Grenada": "Grenada",
                "Guadeloupe": "Guadeloupe",
                "Guam": "Guam",
                "Guatemala": "Guatemala",
                "Guinea": "Guinea",
                "Guinea-Bissau": "Guinea-Bissau",
                "Guyana": "Guyana",
                "Haiti": "Haiti",
                "Heard and Mcdonald Islands": "Heard and Mcdonald Islands",
                "Holy See (Vatican City State)": "Holy See (Vatican City State)",
                "Honduras": "Honduras",
                "Hong Kong, SAR China": "Hong Kong, SAR China",
                "Hungary": "Hungary",
                "Iceland": "Iceland",
                "India": "India",
                "Indonesia": "Indonesia",
                "Iran, Islamic Republic of": "Iran, Islamic Republic of",
                "Iraq": "Iraq",
                "Ireland": "Ireland",
                "Isle of Man": "Isle of Man",
                "Israel": "Israel",
                "Italy": "Italy",
                "Jamaica": "Jamaica",
                "Japan": "Japan",
                "Jordan": "Jordan",
                "Kazakhstan": "Kazakhstan",
                "Kenya": "Kenya",
                "Kiribati": "Kiribati",
                "Korea (North)": "Korea (North)",
                "Korea (South)": "Korea (South)",
                "Kuwait": "Kuwait",
                "Kyrgyzstan": "Kyrgyzstan",
                "Lao PDR": "Lao PDR",
                "Latvia": "Latvia",
                "Lebanon": "Lebanon",
                "Lesotho": "Lesotho",
                "Liberia": "Liberia",
                "Libya": "Libya",
                "Liechtenstein": "Liechtenstein",
                "Lithuania": "Lithuania",
                "Luxembourg": "Luxembourg",
                "Macao, SAR China": "Macao, SAR China",
                "Macedonia, Republic of": "Macedonia, Republic of",
                "Madagascar": "Madagascar",
                "Malawi": "Malawi",
                "Malaysia": "Malaysia",
                "Maldives": "Maldives",
                "Mali": "Mali",
                "Malta": "Malta",
                "Marshall Islands": "Marshall Islands",
                "Martinique": "Martinique",
                "Mauritania": "Mauritania",
                "Mauritius": "Mauritius",
                "Mayotte": "Mayotte",
                "Mexico": "Mexico",
                "Micronesia, Federated States of": "Micronesia, Federated States of",
                "Moldova": "Moldova",
                "Monaco": "Monaco",
                "Mongolia": "Mongolia",
                "Montenegro": "Montenegro",
                "Montserrat": "Montserrat",
                "Morocco": "Morocco",
                "Mozambique": "Mozambique",
                "Myanmar": "Myanmar",
                "Namibia": "Namibia",
                "Nauru": "Nauru",
                "Nepal": "Nepal",
                "Netherlands": "Netherlands",
                "Netherlands Antilles": "Netherlands Antilles",
                "New Caledonia": "New Caledonia",
                "New Zealand": "New Zealand",
                "Nicaragua": "Nicaragua",
                "Niger": "Niger",
                "Nigeria": "Nigeria",
                "Niue": "Niue",
                "Norfolk Island": "Norfolk Island",
                "Northern Mariana Islands": "Northern Mariana Islands",
                "Norway": "Norway",
                "Oman": "Oman",
                "Pakistan": "Pakistan",
                "Palau": "Palau",
                "Palestinian Territory": "Palestinian Territory",
                "Panama": "Panama",
                "Papua New Guinea": "Papua New Guinea",
                "Paraguay": "Paraguay",
                "Peru": "Peru",
                "Philippines": "Philippines",
                "Pitcairn": "Pitcairn",
                "Poland": "Poland",
                "Portugal": "Portugal",
                "Puerto Rico": "Puerto Rico",
                "Qatar": "Qatar",
                "Romania": "Romania",
                "Russian Federation": "Russian Federation",
                "Rwanda": "Rwanda",
                "Réunion": "Réunion",
                "Saint Helena": "Saint Helena",
                "Saint Kitts and Nevis": "Saint Kitts and Nevis",
                "Saint Lucia": "Saint Lucia",
                "Saint Pierre and Miquelon": "Saint Pierre and Miquelon",
                "Saint Vincent and Grenadines": "Saint Vincent and Grenadines",
                "Saint-Barthélemy": "Saint-Barthélemy",
                "Saint-Martin (French part)": "Saint-Martin (French part)",
                "Samoa": "Samoa",
                "San Marino": "San Marino",
                "Sao Tome and Principe": "Sao Tome and Principe",
                "Saudi Arabia": "Saudi Arabia",
                "Senegal": "Senegal",
                "Serbia": "Serbia",
                "Seychelles": "Seychelles",
                "Sierra Leone": "Sierra Leone",
                "Singapore": "Singapore",
                "Slovakia": "Slovakia",
                "Slovenia": "Slovenia",
                "Solomon Islands": "Solomon Islands",
                "Somalia": "Somalia",
                "South Africa": "South Africa",
                "South Georgia and the South Sandwich Islands": "South Georgia and the South Sandwich Islands",
                "South Sudan": "South Sudan",
                "Spain": "Spain",
                "Sri Lanka": "Sri Lanka",
                "Sudan": "Sudan",
                "Suriname": "Suriname",
                "Svalbard and Jan Mayen Islands": "Svalbard and Jan Mayen Islands",
                "Swaziland": "Swaziland",
                "Sweden": "Sweden",
                "Switzerland": "Switzerland",
                "Syrian Arab Republic (Syria)": "Syrian Arab Republic (Syria)",
                "Taiwan, Republic of China": "Taiwan, Republic of China",
                "Tajikistan": "Tajikistan",
                "Tanzania, United Republic of": "Tanzania, United Republic of",
                "Thailand": "Thailand",
                "Timor-Leste": "Timor-Leste",
                "Togo": "Togo",
                "Tokelau": "Tokelau",
                "Tonga": "Tonga",
                "Trinidad and Tobago": "Trinidad and Tobago",
                "Tunisia": "Tunisia",
                "Turkey": "Turkey",
                "Turkmenistan": "Turkmenistan",
                "Turks and Caicos Islands": "Turks and Caicos Islands",
                "Tuvalu": "Tuvalu",
                "Uganda": "Uganda",
                "Ukraine": "Ukraine",
                "United Arab Emirates": "United Arab Emirates",
                "United States of America": "United States of America",
                "Uruguay": "Uruguay",
                "US Minor Outlying Islands": "US Minor Outlying Islands",
                "Uzbekistan": "Uzbekistan",
                "Vanuatu": "Vanuatu",
                "Venezuela (Bolivarian Republic)": "Venezuela (Bolivarian Republic)",
                "Viet Nam": "Viet Nam",
                "Virgin Islands, US": "Virgin Islands, US",
                "Wallis and Futuna Islands": "Wallis and Futuna Islands",
                "Western Sahara": "Western Sahara",
                "Yemen": "Yemen",
                "Zambia": "Zambia",
                "Zimbabwe": "Zimbabwe"
            },
            "default_value": [],
            "allow_null": 1,
            "multiple": 0,
            "ui": 0,
            "return_format": "value",
            "ajax": 0,
            "placeholder": ""
        }
    ],
    "location": [
        [
            {
                "param": "user_role",
                "operator": "==",
                "value": "all"
            }
        ]
    ],
    "menu_order": 20,
    "position": "normal",
    "style": "default",
    "label_placement": "top",
    "instruction_placement": "label",
    "hide_on_screen": "",
    "active": 1,
    "description": "",
    "modified": 1542904548
}