{
    "key": "group_5bd0f18193c41",
    "title": "Header (One column)",
    "fields": [
        {
            "key": "field_5c2d39e333494",
            "label": "Hide Gradient",
            "name": "hide_gradient",
            "type": "true_false",
            "instructions": "Select whether or not you'd like to hide the gradient over the background image.",
            "required": 0,
            "conditional_logic": [
                [
                    {
                        "field": "field_5bdc336977e46",
                        "operator": "!=empty"
                    }
                ]
            ],
            "wrapper": {
                "width": "",
                "class": "",
                "id": ""
            },
            "message": "Hide gradient",
            "default_value": 0,
            "ui": 0,
            "ui_on_text": "",
            "ui_off_text": ""
        },
        {
            "key": "field_5bd0f181a4a8a",
            "label": "",
            "name": "header_content",
            "type": "group",
            "instructions": "",
            "required": 0,
            "conditional_logic": 0,
            "wrapper": {
                "width": "70",
                "class": "",
                "id": ""
            },
            "layout": "block",
            "sub_fields": [
                {
                    "key": "field_5bdc3452cdb59",
                    "label": "Heading",
                    "name": "heading",
                    "type": "text",
                    "instructions": "",
                    "required": 0,
                    "conditional_logic": 0,
                    "wrapper": {
                        "width": "",
                        "class": "",
                        "id": ""
                    },
                    "default_value": "",
                    "placeholder": "",
                    "prepend": "",
                    "append": "",
                    "maxlength": ""
                },
                {
                    "key": "field_5bd0f181a7308",
                    "label": "Title",
                    "name": "title",
                    "type": "textarea",
                    "instructions": "",
                    "required": 0,
                    "conditional_logic": 0,
                    "wrapper": {
                        "width": "",
                        "class": "",
                        "id": ""
                    },
                    "default_value": "",
                    "placeholder": "",
                    "maxlength": "",
                    "rows": 2,
                    "new_lines": "br"
                },
                {
                    "key": "field_5bd0f181a7348",
                    "label": "Text",
                    "name": "text",
                    "type": "textarea",
                    "instructions": "",
                    "required": 0,
                    "conditional_logic": 0,
                    "wrapper": {
                        "width": "",
                        "class": "",
                        "id": ""
                    },
                    "default_value": "",
                    "placeholder": "",
                    "maxlength": "",
                    "rows": 4,
                    "new_lines": "br"
                },
                {
                    "key": "field_5bdc3651bcc1e",
                    "label": "Button",
                    "name": "button",
                    "type": "link",
                    "instructions": "",
                    "required": 0,
                    "conditional_logic": 0,
                    "wrapper": {
                        "width": "",
                        "class": "",
                        "id": ""
                    },
                    "return_format": "array"
                },
                {
                    "key": "field_5bd0f181a735f",
                    "label": "Key Contact",
                    "name": "key_contact",
                    "type": "post_object",
                    "instructions": "",
                    "required": 0,
                    "conditional_logic": 0,
                    "wrapper": {
                        "width": "",
                        "class": "",
                        "id": ""
                    },
                    "post_type": [
                        "all-team"
                    ],
                    "taxonomy": "",
                    "allow_null": 1,
                    "multiple": 0,
                    "return_format": "object",
                    "ui": 1
                }
            ]
        },
        {
            "key": "field_5bdc336977e46",
            "label": "Image",
            "name": "header_image",
            "type": "image",
            "instructions": "If an image is provided it will be used as a background image. It will be resized to 1800 x 940px and positioned centrally.",
            "required": 0,
            "conditional_logic": 0,
            "wrapper": {
                "width": "30",
                "class": "",
                "id": ""
            },
            "return_format": "array",
            "preview_size": "thumbnail",
            "library": "all",
            "min_width": "",
            "min_height": "",
            "min_size": "",
            "max_width": "",
            "max_height": "",
            "max_size": "",
            "mime_types": "jpg,jpeg,png"
        }
    ],
    "location": [
        [
            {
                "param": "page",
                "operator": "==",
                "value": "31"
            }
        ],
        [
            {
                "param": "page",
                "operator": "==",
                "value": "29"
            }
        ],
        [
            {
                "param": "taxonomy",
                "operator": "==",
                "value": "all-topics"
            }
        ],
        [
            {
                "param": "page",
                "operator": "==",
                "value": "21"
            }
        ],
        [
            {
                "param": "taxonomy",
                "operator": "==",
                "value": "all-timelines"
            }
        ],
        [
            {
                "param": "taxonomy",
                "operator": "==",
                "value": "all-team-groups"
            }
        ],
        [
            {
                "param": "taxonomy",
                "operator": "==",
                "value": "all-business-categories"
            }
        ]
    ],
    "menu_order": 10,
    "position": "acf_after_title",
    "style": "default",
    "label_placement": "top",
    "instruction_placement": "label",
    "hide_on_screen": "",
    "active": 1,
    "description": "",
    "modified": 1553096335
}